…
    #nrow(df_t <-tbl(sc, "data_t"))

    df_t <- df

### Review summarization

    df_agg <- df_t %>%
      group_by(category) %>%
      summarize(count = n(), avg_rating = mean(rating)) %>%
      arrange(desc(avg_rating)) %>%
      collect()
    df_agg
    
```{}
    ## # A tibble: 81 × 3
    ##                                    category count avg_rating
    ##                                       <chr> <dbl>      <dbl>
    ## 1                                 Microsoft     5   4.800000
    ## 2                               Nickelodeon    21   4.761905
    ## 3                                      Folk  3396   4.758539
    ## 4  Celebrate your Birthday with Nickelodeon     8   4.750000
    ## 5                                 Christian 15223   4.736846
    ## 6                                      Jazz  3867   4.697181
    ## 7                          Alternative Rock  6763   4.648972
    ## 8                                     RandB  4080   4.637255
    ## 9                                      Rock  6203   4.637111
    ## 10                                   Gospel  2026   4.634748
    ## # ... with 71 more rows
```
…
    df_agg <- df_t %>%
                group_by(category) %>%
                summarize(count = n(), avg_rating = mean(rating)) %>%
                arrange(desc(count)) %>%
                collect()
    df_agg

```{}
    ## # A tibble: 81 × 3
    ##                       category    count avg_rating
    ##                          <chr>    <dbl>      <dbl>
    ## 1                        Books 22505744   4.295776
    ## 2                  Electronics  7687720   4.011288
    ## 3   Clothing Shoes and Jewelry  5558186   4.144391
    ## 4                Movies and TV  4519944   4.184618
    ## 5             Home and Kitchen  4252095   4.099521
    ## 6                CDs and Vinyl  3635026   4.404623
    ## 7  Cell Phones and Accessories  3342779   3.804164
    ## 8          Sports and Outdoors  3082923   4.178582
    ## 9     Health and Personal Care  2971849   4.107928
    ## 10            Apps for Android  2602175   3.991202
    ## # ... with 71 more rows
```
…
